Pima Indians Diabetes
…
## Rows: 768 Columns: 9

## -- Column specification --------------------------------------------------------
## Delimiter: ","
## chr (1): diabetes
## dbl (8): pregnant, glucose, pressure, triceps, insulin, mass, pedigree, age

## 
## i Use `spec()` to retrieve the full column specification for this data.
## i Specify the column types or set `show_col_types = FALSE` to quiet this message.

pima

## # A tibble: 768 x 9
##    pregnant glucose pressure triceps insulin  mass pedigree   age diabetes
##       <dbl>   <dbl>    <dbl>   <dbl>   <dbl> <dbl>    <dbl> <dbl> <chr>   
##  1        6     148       72      35       0  33.6    0.627    50 pos     
##  2        1      85       66      29       0  26.6    0.351    31 neg     
##  3        8     183       64       0       0  23.3    0.672    32 pos     
##  4        1      89       66      23      94  28.1    0.167    21 neg     
##  5        0     137       40      35     168  43.1    2.29     33 pos     
##  6        5     116       74       0       0  25.6    0.201    30 neg     
##  7        3      78       50      32      88  31      0.248    26 pos     
##  8       10     115        0       0       0  35.3    0.134    29 neg     
##  9        2     197       70      45     543  30.5    0.158    53 pos     
## 10        8     125       96       0       0   0      0.232    54 pos     
## # ... with 758 more rows
…
As part 3, you can notice that fortunately there are no missing values. However, 6 out of the 8 features have zero values.

The question is: are these zeros are informative or missingness at random? The answer is: It is informative just in the pregnant column and the rest are considered as missingness at random. Therefore, lets convert these zeros into na

a- Lets excu;de the feature with the informative zero

pima %>% 
  select(-pregnant)  -> pima_na
pima_na

## # A tibble: 768 x 8
##    glucose pressure triceps insulin  mass pedigree   age diabetes
##      <dbl>    <dbl>   <dbl>   <dbl> <dbl>    <dbl> <dbl> <fct>   
##  1     148       72      35       0  33.6    0.627    50 pos     
##  2      85       66      29       0  26.6    0.351    31 neg     
##  3     183       64       0       0  23.3    0.672    32 pos     
##  4      89       66      23      94  28.1    0.167    21 neg     
##  5     137       40      35     168  43.1    2.29     33 pos     
##  6     116       74       0       0  25.6    0.201    30 neg     
##  7      78       50      32      88  31      0.248    26 pos     
##  8     115        0       0       0  35.3    0.134    29 neg     
##  9     197       70      45     543  30.5    0.158    53 pos     
## 10     125       96       0       0   0      0.232    54 pos     
## # ... with 758 more rows

b- Lets convert the zeros into NAs

  replace_with_na_all(data = pima_na, condition = ~.  ==0) ->pima_na
pima_na

## # A tibble: 768 x 8
##    glucose pressure triceps insulin  mass pedigree   age diabetes
##      <dbl>    <dbl>   <dbl>   <dbl> <dbl>    <dbl> <dbl> <fct>   
##  1     148       72      35      NA  33.6    0.627    50 pos     
##  2      85       66      29      NA  26.6    0.351    31 neg     
##  3     183       64      NA      NA  23.3    0.672    32 pos     
##  4      89       66      23      94  28.1    0.167    21 neg     
##  5     137       40      35     168  43.1    2.29     33 pos     
##  6     116       74      NA      NA  25.6    0.201    30 neg     
##  7      78       50      32      88  31      0.248    26 pos     
##  8     115       NA      NA      NA  35.3    0.134    29 neg     
##  9     197       70      45     543  30.5    0.158    53 pos     
## 10     125       96      NA      NA  NA      0.232    54 pos     
## # ... with 758 more rows

c- Lets mutate the pregnant feature

pima_na %>% 
  mutate(pregnant = pima$pregnant) -> pima_na
pima_na

## # A tibble: 768 x 9
##    glucose pressure triceps insulin  mass pedigree   age diabetes pregnant
##      <dbl>    <dbl>   <dbl>   <dbl> <dbl>    <dbl> <dbl> <fct>       <dbl>
##  1     148       72      35      NA  33.6    0.627    50 pos             6
##  2      85       66      29      NA  26.6    0.351    31 neg             1
##  3     183       64      NA      NA  23.3    0.672    32 pos             8
##  4      89       66      23      94  28.1    0.167    21 neg             1
##  5     137       40      35     168  43.1    2.29     33 pos             0
##  6     116       74      NA      NA  25.6    0.201    30 neg             5
##  7      78       50      32      88  31      0.248    26 pos             3
##  8     115       NA      NA      NA  35.3    0.134    29 neg            10
##  9     197       70      45     543  30.5    0.158    53 pos             2
## 10     125       96      NA      NA  NA      0.232    54 pos             8
## # ... with 758 more rows
…
## # A tibble: 1 x 1
##   variance_pedigree
##               <dbl>
## 1             0.110

So it is near zero

4- Assess the numeric features.

There are two great visualization that can be used. However, we need to omit the NA values firstly

na.omit(pima_na) ->pima_NoNa 
pima_NoNa

## # A tibble: 392 x 9
##    glucose pressure triceps insulin  mass pedigree   age diabetes pregnant
##      <dbl>    <dbl>   <dbl>   <dbl> <dbl>    <dbl> <dbl> <fct>       <dbl>
##  1      89       66      23      94  28.1    0.167    21 neg             1
##  2     137       40      35     168  43.1    2.29     33 pos             0
##  3      78       50      32      88  31      0.248    26 pos             3
##  4     197       70      45     543  30.5    0.158    53 pos             2
##  5     189       60      23     846  30.1    0.398    59 pos             1
##  6     166       72      19     175  25.8    0.587    51 pos             5
##  7     118       84      47     230  45.8    0.551    31 pos             0
##  8     103       30      38      83  43.3    0.183    33 neg             1
##  9     115       70      30      96  34.6    0.529    32 pos             1
## 10     126       88      41     235  39.3    0.704    27 neg             3
## # ... with 382 more rows
…
NOTE: we use here the original data with the zeros

set.seed(1234)
initial_split(data = pima_NoNa, strata = diabetes) -> pima_NoNa_split
training(pima_NoNa_split) -> pima_NoNa_train
testing(pima_NoNa_split) -> pima_NoNa_test

We are going to use resampling to evaluate model performance, so lets get those resample sets ready.

set.seed(1234)
pima_folds <- vfold_cv(pima_NoNa_train, strata = diabetes, repeats = 5)
pima_folds

## #  10-fold cross-validation repeated 5 times using stratification 
## # A tibble: 50 x 3
##    splits           id      id2   
##    <list>           <chr>   <chr> 
##  1 <split [263/30]> Repeat1 Fold01
##  2 <split [263/30]> Repeat1 Fold02
##  3 <split [263/30]> Repeat1 Fold03
##  4 <split [263/30]> Repeat1 Fold04
##  5 <split [263/30]> Repeat1 Fold05
##  6 <split [263/30]> Repeat1 Fold06
##  7 <split [264/29]> Repeat1 Fold07
##  8 <split [265/28]> Repeat1 Fold08
##  9 <split [265/28]> Repeat1 Fold09
## 10 <split [265/28]> Repeat1 Fold10
## # ... with 40 more rows
…
NOTE: we use here the data with the NAs

set.seed(1234)
initial_split(data = pima_na, strata = diabetes) -> pima_split
training(pima_split) -> pima_train
testing(pima_split) -> pima_test

set.seed(1234)
pima_folds_after <- vfold_cv(pima_train, strata = diabetes, repeats = 5)
pima_folds_after

## #  10-fold cross-validation repeated 5 times using stratification 
## # A tibble: 50 x 3
##    splits           id      id2   
##    <list>           <chr>   <chr> 
##  1 <split [517/59]> Repeat1 Fold01
##  2 <split [518/58]> Repeat1 Fold02
##  3 <split [518/58]> Repeat1 Fold03
##  4 <split [518/58]> Repeat1 Fold04
##  5 <split [518/58]> Repeat1 Fold05
##  6 <split [519/57]> Repeat1 Fold06
##  7 <split [519/57]> Repeat1 Fold07
##  8 <split [519/57]> Repeat1 Fold08
##  9 <split [519/57]> Repeat1 Fold09
## 10 <split [519/57]> Repeat1 Fold10
## # ... with 40 more rows
…
collect_metrics(pima_final_after)

## # A tibble: 4 x 4
##   .metric  .estimator .estimate .config             
##   <chr>    <chr>          <dbl> <chr>               
## 1 accuracy binary         0.714 Preprocessor1_Model1
## 2 sens     binary         0.704 Preprocessor1_Model1
## 3 spec     binary         0.731 Preprocessor1_Model1
## 4 roc_auc  binary         0.799 Preprocessor1_Model1

It gave simillar results

collect_predictions(pima_final_after) 

## # A tibble: 192 x 7
##    id               .pred_neg .pred_pos  .row .pred_class diabetes .config      
##    <chr>                <dbl>     <dbl> <int> <fct>       <fct>    <chr>        
##  1 train/test split     1         0         2 neg         neg      Preprocessor~
##  2 train/test split     0.465     0.535    10 pos         pos      Preprocessor~
##  3 train/test split     1         0        11 neg         neg      Preprocessor~
##  4 train/test split     0         1        14 pos         pos      Preprocessor~
##  5 train/test split     0.728     0.272    15 neg         pos      Preprocessor~
##  6 train/test split     0.551     0.449    16 neg         pos      Preprocessor~
##  7 train/test split     0.754     0.246    19 neg         neg      Preprocessor~
##  8 train/test split     0.160     0.840    21 pos         neg      Preprocessor~
##  9 train/test split     0.754     0.246    22 neg         neg      Preprocessor~
## 10 train/test split     0         1        23 pos         pos      Preprocessor~
## # ... with 182 more rows
…
